division_4bit_tb.vcd
$date
	Tue May 06 11:33:56 2025
$end
$version
	Icarus Verilog
$end
$timescale
	1ps
$end
$scope module division_4bit_tb $end
$var wire 7 ! seg [6:0] $end
$var wire 5 " remainder [4:0] $end
$var wire 1 # done $end
$var wire 4 $ digit [3:0] $end
$var reg 1 % clk $end
$var reg 4 & dividend [3:0] $end
$var reg 4 ' divisor [3:0] $end
$var reg 1 ( rst $end
$var reg 1 ) start $end
$scope module uut $end
$var wire 1 % clk $end
$var wire 4 * dividend [3:0] $end
$var wire 4 + divisor [3:0] $end
$var wire 1 ( rst $end
$var wire 1 ) start $end
$var wire 1 , status $end
$var wire 1 - shift_left_enable_q $end
$var wire 1 . shift_left_enable_a $end
$var wire 1 / select_mux_2 $end
$var wire 1 0 select_add $end
$var wire 1 1 select_Q $end
$var wire 1 2 select_A $end
$var wire 7 3 seg [6:0] $end
$var wire 5 4 remainder [4:0] $end
$var wire 4 5 quotient [3:0] $end
$var wire 1 6 negative_flag $end
$var wire 1 7 ld_rem_quotient $end
$var wire 1 8 ld_Q $end
$var wire 1 9 ld_A $end
$var wire 1 # done $end
$var wire 4 : digit [3:0] $end
$var wire 1 ; count_enable $end
$var wire 2 < count [1:0] $end
$scope module controlpath $end
$var wire 1 % clk $end
$var wire 1 ( rst $end
$var wire 1 ) start $end
$var wire 1 , status $end
$var wire 1 6 negative_flag $end
$var wire 2 = count [1:0] $end
$var parameter 4 > adder $end
$var parameter 4 ? check $end
$var parameter 4 @ correct $end
$var parameter 4 A display $end
$var parameter 4 B idle $end
$var parameter 4 C iter $end
$var parameter 4 D load $end
$var parameter 4 E load_wait $end
$var parameter 4 F shift_a $end
$var parameter 4 G shift_q $end
$var parameter 4 H subtractor $end
$var parameter 4 I wait_a $end
$var parameter 4 J wait_q $end
$var reg 1 ; count_enable $end
$var reg 1 # done $end
$var reg 1 9 ld_A $end
$var reg 1 8 ld_Q $end
$var reg 1 7 ld_rem_quotient $end
$var reg 4 K next_state [3:0] $end
$var reg 4 L present_state [3:0] $end
$var reg 1 2 select_A $end
$var reg 1 1 select_Q $end
$var reg 1 0 select_add $end
$var reg 1 / select_mux_2 $end
$var reg 1 . shift_left_enable_a $end
$var reg 1 - shift_left_enable_q $end
$upscope $end
$scope module datapath $end
$var wire 1 % clk $end
$var wire 1 ; count_enable $end
$var wire 4 M dividend [3:0] $end
$var wire 4 N divisor [3:0] $end
$var wire 1 9 ld_A $end
$var wire 1 8 ld_Q $end
$var wire 1 7 ld_rem_quotient $end
$var wire 1 ( rst $end
$var wire 1 2 select_A $end
$var wire 1 1 select_Q $end
$var wire 1 0 select_add $end
$var wire 1 / select_mux_2 $end
$var wire 1 . shift_left_enable_a $end
$var wire 1 - shift_left_enable_q $end
$var wire 5 O subtractor_out [4:0] $end
$var wire 1 , status $end
$var wire 4 P shift_register_out_q [3:0] $end
$var wire 5 Q shift_register_out_a [4:0] $end
$var wire 5 R remainder [4:0] $end
$var wire 4 S quotient [3:0] $end
$var wire 1 6 negative_flag $end
$var wire 5 T mux_out_4 [4:0] $end
$var wire 4 U mux_out_3 [3:0] $end
$var wire 5 V mux_out_2 [4:0] $end
$var wire 5 W mux_out_1 [4:0] $end
$var wire 2 X count [1:0] $end
$var wire 5 Y adder_out [4:0] $end
$var wire 4 Z Q [3:0] $end
$var wire 5 [ A [4:0] $end
$scope module A_reg $end
$var wire 1 % clk $end
$var wire 1 9 ld_register $end
$var wire 1 ( rst $end
$var wire 5 \ input_data [4:0] $end
$var reg 5 ] output_data [4:0] $end
$upscope $end
$scope module Q_reg $end
$var wire 1 % clk $end
$var wire 1 8 ld_register $end
$var wire 1 ( rst $end
$var wire 4 ^ input_data [3:0] $end
$var reg 4 _ output_data [3:0] $end
$upscope $end
$scope module adder1 $end
$var wire 5 ` B [4:0] $end
$var wire 5 a A [4:0] $end
$var reg 5 b sum [4:0] $end
$upscope $end
$scope module cmp $end
$var wire 2 c B [1:0] $end
$var wire 2 d A [1:0] $end
$var reg 1 , equal $end
$upscope $end
$scope module cmp1 $end
$var wire 1 e A $end
$var wire 1 f B $end
$var reg 1 6 equal $end
$upscope $end
$scope module incrementer $end
$var wire 1 % clk $end
$var wire 1 ; count_enable $end
$var wire 1 ( rst $end
$var reg 2 g count [1:0] $end
$upscope $end
$scope module mux1 $end
$var wire 5 h A [4:0] $end
$var wire 1 2 select $end
$var wire 5 i B [4:0] $end
$var reg 5 j out [4:0] $end
$upscope $end
$scope module mux2 $end
$var wire 5 k A [4:0] $end
$var wire 1 / select $end
$var wire 5 l B [4:0] $end
$var reg 5 m out [4:0] $end
$upscope $end
$scope module mux3 $end
$var wire 4 n A [3:0] $end
$var wire 1 1 select $end
$var wire 4 o B [3:0] $end
$var reg 4 p out [3:0] $end
$upscope $end
$scope module mux4 $end
$var wire 5 q A [4:0] $end
$var wire 1 0 select $end
$var wire 5 r B [4:0] $end
$var reg 5 s out [4:0] $end
$upscope $end
$scope module quotient_reg $end
$var wire 1 % clk $end
$var wire 1 7 ld_register $end
$var wire 1 ( rst $end
$var wire 4 t input_data [3:0] $end
$var reg 4 u output_data [3:0] $end
$upscope $end
$scope module remainder_reg $end
$var wire 1 % clk $end
$var wire 5 v input_data [4:0] $end
$var wire 1 7 ld_register $end
$var wire 1 ( rst $end
$var reg 5 w output_data [4:0] $end
$upscope $end
$scope module shift_A_left $end
$var wire 5 x A [4:0] $end
$var wire 4 y Q [3:0] $end
$var wire 1 % clk $end
$var wire 1 ( rst $end
$var wire 1 . shift_left_enable_a $end
$var reg 5 z shift_out [4:0] $end
$upscope $end
$scope module shift_Q_left $end
$var wire 1 { A $end
$var wire 4 | Q [3:0] $end
$var wire 1 % clk $end
$var wire 1 ( rst $end
$var wire 1 - shift_left_enable_q $end
$var reg 4 } shift_out [3:0] $end
$upscope $end
$scope module subtractor1 $end
$var wire 5 ~ A [4:0] $end
$var wire 5 !" B [4:0] $end
$var reg 5 "" difference [4:0] $end
$upscope $end
$upscope $end
$scope module lcd1 $end
$var wire 1 % clk $end
$var wire 4 #" quotient [3:0] $end
$var wire 1 ( rst $end
$var parameter 7 $" A $end
$var parameter 7 %" B $end
$var parameter 7 &" C $end
$var parameter 7 '" D $end
$var parameter 7 (" E $end
$var parameter 7 )" EIGHT $end
$var parameter 7 *" F $end
$var parameter 7 +" FIVE $end
$var parameter 7 ," FOUR $end
$var parameter 7 -" NINE $end
$var parameter 7 ." ONE $end
$var parameter 7 /" SEVEN $end
$var parameter 7 0" SIX $end
$var parameter 7 1" THREE $end
$var parameter 7 2" TWO $end
$var parameter 7 3" ZERO $end
$var reg 4 4" digit [3:0] $end
$var reg 7 5" seg [6:0] $end
$upscope $end
$upscope $end
$upscope $end
$enddefinitions $end
$comment Show the parameter values. $end
$dumpall
b1 3"
b10010 2"
b110 1"
b100000 0"
b1111 /"
b1001111 ."
b1100 -"
b1001100 ,"
b100100 +"
b111000 *"
b0 )"
b10000 ("
b1000010 '"
b110001 &"
b1100000 %"
b1000 $"
b1000 J
b100 I
b110 H
b111 G
b11 F
b10 E
b1 D
b1001 C
b0 B
b1100 A
b1011 @
b1010 ?
b101 >
$end
#0
$dumpvars
b1 5"
bx 4"
b0 #"
b0 ""
b0 !"
b0 ~
b0 }
b0 |
0{
b0 z
b0 y
b0 x
b0 w
b0 v
b0 u
b0 t
b0 s
b0 r
b0 q
b0 p
b0 o
b0 n
b0 m
b0 l
b0 k
b0 j
b0 i
b0 h
bx g
1f
0e
bx d
b11 c
b0 b
b0 a
b0 `
b0 _
b0 ^
b0 ]
b0 \
b0 [
b0 Z
b0 Y
bx X
b0 W
b0 V
b0 U
b0 T
b0 S
b0 R
b0 Q
b0 P
b0 O
b0 N
b0 M
b0 L
b0 K
bx =
bx <
0;
bx :
09
08
07
06
b0 5
b0 4
b1 3
02
01
00
0/
0.
0-
0,
b0 +
b0 *
0)
1(
b0 '
b0 &
0%
bx $
0#
b0 "
b1 !
$end
#5000
b0 <
b0 =
b0 X
b0 d
b0 g
b1110 $
b1110 :
b1110 4"
1%
#10000
0%
0(
#15000
1%
#20000
0%
1(
#25000
1%
#30000
1{
b10001 W
b10001 \
b10001 j
b10001 V
b10001 i
b10001 m
b10001 v
b1 K
b1111 Y
b1111 b
b1111 k
b10001 O
b10001 l
b10001 ""
0%
1)
b1111 `
b1111 !"
b1111 '
b1111 +
b1111 N
b1111 &
b1111 *
b1111 M
b1111 n
0(
#35000
b1111 U
b1111 ^
b1111 p
b0 W
b0 \
b0 j
18
19
11
12
b11 K
b1 L
1%
#40000
0%
#45000
b0 U
b0 ^
b0 p
b10001 W
b10001 \
b10001 j
1.
08
09
01
02
b100 K
b1111 Z
b1111 _
b1111 y
b1111 |
b11 L
1%
#50000
0%
0)
#55000
b10010 W
b10010 \
b10010 j
b10000 Y
b10000 b
b10000 k
b10010 V
b10010 i
b10010 m
b10010 v
0.
b110 K
b1 T
b1 a
b1 s
b10010 O
b10010 l
b10010 ""
b100 L
b1 Q
b1 r
b1 z
b1 ~
1%
#60000
0%
#65000
b111 K
b110 L
1%
#70000
0%
#75000
1-
18
19
b1000 K
b111 L
1%
#80000
0%
#85000
16
1e
b1110 U
b1110 ^
b1110 p
0-
b1001 K
b10010 [
b10010 ]
b10010 q
b10010 x
b0 Z
b0 _
b0 y
b0 |
b1110 P
b1110 o
b1110 t
b1110 }
b1000 L
1%
#90000
0%
#95000
08
09
1;
b11 K
b1001 L
b1110 Z
b1110 _
b1110 y
b1110 |
1%
#100000
0%
#105000
1.
0;
b100 K
b11 L
b1 <
b1 =
b1 X
b1 d
b1 g
1%
#110000
0%
#115000
b10110 W
b10110 \
b10110 j
b10100 Y
b10100 b
b10100 k
b10110 V
b10110 i
b10110 m
b10110 v
0.
b101 K
b101 T
b101 a
b101 s
b10110 O
b10110 l
b10110 ""
b100 L
b101 Q
b101 r
b101 z
b101 ~
1%
#120000
0%
#125000
b10100 W
b10100 \
b10100 j
b10100 V
b10100 i
b10100 m
b10100 v
1/
b111 K
b101 L
1%
#130000
0%
#135000
1-
18
19
b1000 K
b111 L
1%
#140000
0%
#145000
b1100 U
b1100 ^
b1100 p
0-
b1001 K
b10100 [
b10100 ]
b10100 q
b10100 x
b1100 P
b1100 o
b1100 t
b1100 }
b1000 L
1%
#150000
0%
#155000
08
09
1;
b11 K
b1001 L
b1100 Z
b1100 _
b1100 y
b1100 |
1%
#160000
0%
#165000
b10110 W
b10110 \
b10110 j
b10110 V
b10110 i
b10110 m
b10110 v
0/
1.
0;
b100 K
b11 L
b10 <
b10 =
b10 X
b10 d
b10 g
1%
#170000
0%
#175000
b11010 W
b11010 \
b11010 j
b11000 Y
b11000 b
b11000 k
b11010 V
b11010 i
b11010 m
b11010 v
0.
b101 K
b1001 T
b1001 a
b1001 s
b11010 O
b11010 l
b11010 ""
b100 L
b1001 Q
b1001 r
b1001 z
b1001 ~
1%
#180000
0%
#185000
b11000 W
b11000 \
b11000 j
b11000 V
b11000 i
b11000 m
b11000 v
1/
b111 K
b101 L
1%
#190000
0%
#195000
1-
18
19
b1000 K
b111 L
1%
#200000
0%
#205000
b1000 U
b1000 ^
b1000 p
0-
b1001 K
b11000 [
b11000 ]
b11000 q
b11000 x
b1000 P
b1000 o
b1000 t
b1000 }
b1000 L
1%
#210000
0%
#215000
08
09
1;
b11 K
b1001 L
b1000 Z
b1000 _
b1000 y
b1000 |
1%
#220000
0%
#225000
b11010 W
b11010 \
b11010 j
b11010 V
b11010 i
b11010 m
b11010 v
0/
1.
0;
b100 K
1,
b11 L
b11 <
b11 =
b11 X
b11 d
b11 g
1%
#230000
0%
#235000
0{
b10 W
b10 \
b10 j
b0 Y
b0 b
b0 k
b10 V
b10 i
b10 m
b10 v
0.
b101 K
b10001 T
b10001 a
b10001 s
b10 O
b10 l
b10 ""
b100 L
b10001 Q
b10001 r
b10001 z
b10001 ~
1%
#240000
0%
#245000
b0 W
b0 \
b0 j
b0 V
b0 i
b0 m
b0 v
1/
b111 K
b101 L
1%
#250000
0%
#255000
1-
18
19
b1000 K
b111 L
1%
#260000
0%
#265000
06
0e
b1 U
b1 ^
b1 p
0-
b1010 K
b0 [
b0 ]
b0 q
b0 x
b1 P
b1 o
b1 t
b1 }
b1000 L
1%
#270000
0%
#275000
08
09
b1100 K
b1010 L
b1 Z
b1 _
b1 y
b1 |
1%
#280000
0%
#285000
1#
17
b0 K
b1100 L
1%
#290000
0%
#295000
b10 W
b10 \
b10 j
b10 V
b10 i
b10 m
b10 v
0#
0/
07
b1001111 !
b1001111 3
b1001111 5"
b0 L
b1 5
b1 S
b1 u
b1 #"
1%
#300000
0%
#305000
1%
#310000
0%
#315000
1%
#320000
0%
#325000
1%
#330000
0%
#335000
1%
#340000
0%
#345000
1%
#350000
0%
#355000
1%
#360000
1{
b10001 W
b10001 \
b10001 j
b1111 Y
b1111 b
b1111 k
b10001 V
b10001 i
b10001 m
b10001 v
b0 T
b0 a
b0 s
b10001 O
b10001 l
b10001 ""
b0 U
b0 ^
b0 p
b1 !
b1 3
b1 5"
b0 Z
b0 _
b0 y
b0 |
b0 Q
b0 r
b0 z
b0 ~
b0 P
b0 o
b0 t
b0 }
b0 5
b0 S
b0 u
b0 #"
0%
1(
#365000
0,
b0 <
b0 =
b0 X
b0 d
b0 g
1%
#370000
b11110 W
b11110 \
b11110 j
b11110 V
b11110 i
b11110 m
b11110 v
b1 K
b10 Y
b10 b
b10 k
b11110 O
b11110 l
b11110 ""
0%
1)
b10 `
b10 !"
b10 '
b10 +
b10 N
b111 &
b111 *
b111 M
b111 n
0(
#375000
b111 U
b111 ^
b111 p
b0 W
b0 \
b0 j
18
19
11
12
b11 K
b1 L
1%
#380000
0%
#385000
b0 U
b0 ^
b0 p
b11110 W
b11110 \
b11110 j
1.
08
09
01
02
b100 K
b11 L
b111 Z
b111 _
b111 y
b111 |
1%
#390000
0%
0)
#395000
0.
b110 K
b100 L
1%
#400000
0%
#405000
b111 K
b110 L
1%
#410000
0%
#415000
1-
18
19
b1000 K
b111 L
1%
#420000
0%
#425000
16
0-
b1001 K
b1110 U
b1110 ^
b1110 p
1e
b1000 L
b1110 P
b1110 o
b1110 t
b1110 }
b0 Z
b0 _
b0 y
b0 |
b11110 [
b11110 ]
b11110 q
b11110 x
1%
#430000
0%
#435000
08
09
1;
b11 K
b1110 Z
b1110 _
b1110 y
b1110 |
b1001 L
1%
#440000
0%
#445000
1.
0;
b100 K
b11 L
b1 <
b1 =
b1 X
b1 d
b1 g
1%
#450000
0%
#455000
b11011 W
b11011 \
b11011 j
b11111 Y
b11111 b
b11111 k
b11011 V
b11011 i
b11011 m
b11011 v
b11101 T
b11101 a
b11101 s
b11011 O
b11011 l
b11011 ""
0.
b101 K
b11101 Q
b11101 r
b11101 z
b11101 ~
b100 L
1%
#460000
0%
#465000
b11111 W
b11111 \
b11111 j
b11111 V
b11111 i
b11111 m
b11111 v
1/
b111 K
b101 L
1%
#470000
0%
#475000
1-
18
19
b1000 K
b111 L
1%
#480000
0%
#485000
0-
b1001 K
b1100 U
b1100 ^
b1100 p
b1000 L
b1100 P
b1100 o
b1100 t
b1100 }
b11111 [
b11111 ]
b11111 q
b11111 x
1%
#490000
0%
#495000
08
09
1;
b11 K
b1100 Z
b1100 _
b1100 y
b1100 |
b1001 L
1%
#500000
0%
#505000
b11011 W
b11011 \
b11011 j
b11011 V
b11011 i
b11011 m
b11011 v
0/
1.
0;
b100 K
b11 L
b10 <
b10 =
b10 X
b10 d
b10 g
1%
#510000
0%
#515000
b11101 W
b11101 \
b11101 j
b1 Y
b1 b
b1 k
b11101 V
b11101 i
b11101 m
b11101 v
b11111 T
b11111 a
b11111 s
b11101 O
b11101 l
b11101 ""
0.
b101 K
b11111 Q
b11111 r
b11111 z
b11111 ~
b100 L
1%
#520000
0%
#525000
0{
b1 W
b1 \
b1 j
b1 V
b1 i
b1 m
b1 v
1/
b111 K
b101 L
1%
#530000
0%
#535000
1-
18
19
b1000 K
b111 L
1%
#540000
0%
#545000
06
0-
b1001 K
b1001 U
b1001 ^
b1001 p
0e
b1000 L
b1001 P
b1001 o
b1001 t
b1001 }
b1 [
b1 ]
b1 q
b1 x
1%
#550000
0%
#555000
08
09
1;
b11 K
b1001 Z
b1001 _
b1001 y
b1001 |
b1001 L
1%
#560000
0%
#565000
1{
b11101 W
b11101 \
b11101 j
b11101 V
b11101 i
b11101 m
b11101 v
0/
1.
0;
b100 K
1,
b11 L
b11 <
b11 =
b11 X
b11 d
b11 g
1%
#570000
0%
#575000
0{
b1 W
b1 \
b1 j
b101 Y
b101 b
b101 k
b1 V
b1 i
b1 m
b1 v
b11 T
b11 a
b11 s
b1 O
b1 l
b1 ""
0.
b110 K
b11 Q
b11 r
b11 z
b11 ~
b100 L
1%
#580000
0%
#585000
b111 K
b110 L
1%
#590000
0%
#595000
1-
18
19
b1000 K
b111 L
1%
#600000
0%
#605000
0-
b1010 K
b11 U
b11 ^
b11 p
b1000 L
b11 P
b11 o
b11 t
b11 }
1%
#610000
0%
#615000
08
09
b1100 K
b11 Z
b11 _
b11 y
b11 |
b1010 L
1%
#620000
0%
#625000
1#
17
b0 K
b1100 L
1%
#630000
0%
#635000
b110 !
b110 3
b110 5"
0#
07
b1 "
b1 4
b1 R
b1 w
b11 5
b11 S
b11 u
b11 #"
b0 L
1%
#640000
0%
#645000
1%
#650000
0%
#655000
1%
#660000
0%
#665000
1%
#670000
0%
#675000
1%
#680000
0%
#685000
1%
#690000
0%
#695000
1%
#700000
1{
b11110 W
b11110 \
b11110 j
b11110 V
b11110 i
b11110 m
b11110 v
b10 Y
b10 b
b10 k
b1 !
b1 3
b1 5"
b0 U
b0 ^
b0 p
b11110 O
b11110 l
b11110 ""
b0 T
b0 a
b0 s
b0 5
b0 S
b0 u
b0 #"
b0 "
b0 4
b0 R
b0 w
b0 P
b0 o
b0 t
b0 }
b0 Q
b0 r
b0 z
b0 ~
b0 Z
b0 _
b0 y
b0 |
b0 [
b0 ]
b0 q
b0 x
0%
1(
#705000
0,
b0 <
b0 =
b0 X
b0 d
b0 g
1%
#710000
b11100 W
b11100 \
b11100 j
b11100 V
b11100 i
b11100 m
b11100 v
b1 K
b100 Y
b100 b
b100 k
b11100 O
b11100 l
b11100 ""
0%
1)
b100 `
b100 !"
b100 '
b100 +
b100 N
b1111 &
b1111 *
b1111 M
b1111 n
0(
#715000
b1111 U
b1111 ^
b1111 p
b0 W
b0 \
b0 j
18
19
11
12
b11 K
b1 L
1%
#720000
0%
#725000
b0 U
b0 ^
b0 p
b11100 W
b11100 \
b11100 j
1.
08
09
01
02
b100 K
b1111 Z
b1111 _
b1111 y
b1111 |
b11 L
1%
#730000
0%
0)
#735000
b11101 W
b11101 \
b11101 j
b101 Y
b101 b
b101 k
b11101 V
b11101 i
b11101 m
b11101 v
0.
b110 K
b1 T
b1 a
b1 s
b11101 O
b11101 l
b11101 ""
b100 L
b1 Q
b1 r
b1 z
b1 ~
1%
#740000
0%
#745000
b111 K
b110 L
1%
#750000
0%
#755000
1-
18
19
b1000 K
b111 L
1%
#760000
0%
#765000
16
1e
b1110 U
b1110 ^
b1110 p
0-
b1001 K
b11101 [
b11101 ]
b11101 q
b11101 x
b0 Z
b0 _
b0 y
b0 |
b1110 P
b1110 o
b1110 t
b1110 }
b1000 L
1%
#770000
0%
#775000
08
09
1;
b11 K
b1001 L
b1110 Z
b1110 _
b1110 y
b1110 |
1%
#780000
0%
#785000
1.
0;
b100 K
b11 L
b1 <
b1 =
b1 X
b1 d
b1 g
1%
#790000
0%
#795000
b10111 W
b10111 \
b10111 j
b11111 Y
b11111 b
b11111 k
b10111 V
b10111 i
b10111 m
b10111 v
0.
b101 K
b11011 T
b11011 a
b11011 s
b10111 O
b10111 l
b10111 ""
b100 L
b11011 Q
b11011 r
b11011 z
b11011 ~
1%
#800000
0%
#805000
b11111 W
b11111 \
b11111 j
b11111 V
b11111 i
b11111 m
b11111 v
1/
b111 K
b101 L
1%
#810000
0%
#815000
1-
18
19
b1000 K
b111 L
1%
#820000
0%
#825000
b1100 U
b1100 ^
b1100 p
0-
b1001 K
b11111 [
b11111 ]
b11111 q
b11111 x
b1100 P
b1100 o
b1100 t
b1100 }
b1000 L
1%
#830000
0%
#835000
08
09
1;
b11 K
b1001 L
b1100 Z
b1100 _
b1100 y
b1100 |
1%
#840000
0%
#845000
b10111 W
b10111 \
b10111 j
b10111 V
b10111 i
b10111 m
b10111 v
0/
1.
0;
b100 K
b11 L
b10 <
b10 =
b10 X
b10 d
b10 g
1%
#850000
0%
#855000
b11011 W
b11011 \
b11011 j
b11 Y
b11 b
b11 k
b11011 V
b11011 i
b11011 m
b11011 v
0.
b101 K
b11111 T
b11111 a
b11111 s
b11011 O
b11011 l
b11011 ""
b100 L
b11111 Q
b11111 r
b11111 z
b11111 ~
1%
#860000
0%
#865000
0{
b11 W
b11 \
b11 j
b11 V
b11 i
b11 m
b11 v
1/
b111 K
b101 L
1%
#870000
0%
#875000
1-
18
19
b1000 K
b111 L
1%
#880000
0%
#885000
06
0e
b1001 U
b1001 ^
b1001 p
0-
b1001 K
b11 [
b11 ]
b11 q
b11 x
b1001 P
b1001 o
b1001 t
b1001 }
b1000 L
1%
#890000
0%
#895000
08
09
1;
b11 K
b1001 L
b1001 Z
b1001 _
b1001 y
b1001 |
1%
#900000
0%
#905000
1{
b11011 W
b11011 \
b11011 j
b11011 V
b11011 i
b11011 m
b11011 v
0/
1.
0;
b100 K
1,
b11 L
b11 <
b11 =
b11 X
b11 d
b11 g
1%
#910000
0%
#915000
0{
b11 W
b11 \
b11 j
b1011 Y
b1011 b
b1011 k
b11 V
b11 i
b11 m
b11 v
0.
b110 K
b111 T
b111 a
b111 s
b11 O
b11 l
b11 ""
b100 L
b111 Q
b111 r
b111 z
b111 ~
1%
#920000
0%
#925000
b111 K
b110 L
1%
#930000
0%
#935000
1-
18
19
b1000 K
b111 L
1%
#940000
0%
#945000
b11 U
b11 ^
b11 p
0-
b1010 K
b11 P
b11 o
b11 t
b11 }
b1000 L
1%
#950000
0%
#955000
08
09
b1100 K
b1010 L
b11 Z
b11 _
b11 y
b11 |
1%
#960000
0%
#965000
1#
17
b0 K
b1100 L
1%
#970000
0%
#975000
0#
07
b110 !
b110 3
b110 5"
b0 L
b11 5
b11 S
b11 u
b11 #"
b11 "
b11 4
b11 R
b11 w
1%
#980000
0%
#985000
1%
#990000
0%
#995000
1%
#1000000
0%
#1005000
1%
#1010000
0%
#1015000
1%
#1020000
0%
#1025000
1%
#1030000
0%
#1035000
1%
#1040000
1{
b11100 W
b11100 \
b11100 j
b100 Y
b100 b
b100 k
b11100 V
b11100 i
b11100 m
b11100 v
b0 T
b0 a
b0 s
b11100 O
b11100 l
b11100 ""
b0 U
b0 ^
b0 p
b1 !
b1 3
b1 5"
b0 [
b0 ]
b0 q
b0 x
b0 Z
b0 _
b0 y
b0 |
b0 Q
b0 r
b0 z
b0 ~
b0 P
b0 o
b0 t
b0 }
b0 "
b0 4
b0 R
b0 w
b0 5
b0 S
b0 u
b0 #"
0%
1(
#1045000
0,
b0 <
b0 =
b0 X
b0 d
b0 g
1%
#1050000
b11110 W
b11110 \
b11110 j
b11110 V
b11110 i
b11110 m
b11110 v
b1 K
b10 Y
b10 b
b10 k
b11110 O
b11110 l
b11110 ""
0%
1)
b10 `
b10 !"
b10 '
b10 +
b10 N
b1001 &
b1001 *
b1001 M
b1001 n
0(
#1055000
b1001 U
b1001 ^
b1001 p
b0 W
b0 \
b0 j
18
19
11
12
b11 K
b1 L
1%
#1060000
0%
#1065000
b0 U
b0 ^
b0 p
b11110 W
b11110 \
b11110 j
1.
08
09
01
02
b100 K
b11 L
b1001 Z
b1001 _
b1001 y
b1001 |
1%
#1070000
0%
0)
#1075000
b11111 W
b11111 \
b11111 j
b11 Y
b11 b
b11 k
b11111 V
b11111 i
b11111 m
b11111 v
b1 T
b1 a
b1 s
b11111 O
b11111 l
b11111 ""
0.
b110 K
b1 Q
b1 r
b1 z
b1 ~
b100 L
1%
#1080000
0%
#1085000
b111 K
b110 L
1%
#1090000
0%
#1095000
1-
18
19
b1000 K
b111 L
1%
#1100000
0%
#1105000
16
0-
b1001 K
b10 U
b10 ^
b10 p
1e
b1000 L
b10 P
b10 o
b10 t
b10 }
b0 Z
b0 _
b0 y
b0 |
b11111 [
b11111 ]
b11111 q
b11111 x
1%
#1110000
0%
#1115000
08
09
1;
b11 K
b10 Z
b10 _
b10 y
b10 |
b1001 L
1%
#1120000
0%
#1125000
1.
0;
b100 K
b11 L
b1 <
b1 =
b1 X
b1 d
b1 g
1%
#1130000
0%
#1135000
b11100 W
b11100 \
b11100 j
b0 Y
b0 b
b0 k
b11100 V
b11100 i
b11100 m
b11100 v
b11110 T
b11110 a
b11110 s
b11100 O
b11100 l
b11100 ""
0.
b101 K
b11110 Q
b11110 r
b11110 z
b11110 ~
b100 L
1%
#1140000
0%
#1145000
0{
b0 W
b0 \
b0 j
b0 V
b0 i
b0 m
b0 v
1/
b111 K
b101 L
1%
#1150000
0%
#1155000
1-
18
19
b1000 K
b111 L
1%
#1160000
0%
#1165000
06
0-
b1001 K
b101 U
b101 ^
b101 p
0e
b1000 L
b101 P
b101 o
b101 t
b101 }
b0 [
b0 ]
b0 q
b0 x
1%
#1170000
0%
#1175000
08
09
1;
b11 K
b101 Z
b101 _
b101 y
b101 |
b1001 L
1%
#1180000
0%
#1185000
1{
b11100 W
b11100 \
b11100 j
b11100 V
b11100 i
b11100 m
b11100 v
0/
1.
0;
b100 K
b11 L
b10 <
b10 =
b10 X
b10 d
b10 g
1%
#1190000
0%
#1195000
b11110 W
b11110 \
b11110 j
b10 Y
b10 b
b10 k
b11110 V
b11110 i
b11110 m
b11110 v
b0 T
b0 a
b0 s
b11110 O
b11110 l
b11110 ""
0.
b110 K
b0 Q
b0 r
b0 z
b0 ~
b100 L
1%
#1200000
0%
#1205000
b111 K
b110 L
1%
#1210000
0%
#1215000
1-
18
19
b1000 K
b111 L
1%
#1220000
0%
#1225000
16
0-
b1001 K
b1010 U
b1010 ^
b1010 p
1e
b1000 L
b1010 P
b1010 o
b1010 t
b1010 }
b11110 [
b11110 ]
b11110 q
b11110 x
1%
#1230000
0%
#1235000
08
09
1;
b11 K
b1010 Z
b1010 _
b1010 y
b1010 |
b1001 L
1%
#1240000
0%
#1245000
1.
0;
b100 K
1,
b11 L
b11 <
b11 =
b11 X
b11 d
b11 g
1%
#1250000
0%
#1255000
b11011 W
b11011 \
b11011 j
b11111 Y
b11111 b
b11111 k
b11011 V
b11011 i
b11011 m
b11011 v
b11101 T
b11101 a
b11101 s
b11011 O
b11011 l
b11011 ""
0.
b101 K
b11101 Q
b11101 r
b11101 z
b11101 ~
b100 L
1%
#1260000
0%
#1265000
b11111 W
b11111 \
b11111 j
b11111 V
b11111 i
b11111 m
b11111 v
1/
b111 K
b101 L
1%
#1270000
0%
#1275000
1-
18
19
b1000 K
b111 L
1%
#1280000
0%
#1285000
0-
b1010 K
b100 U
b100 ^
b100 p
b1000 L
b100 P
b100 o
b100 t
b100 }
b11111 [
b11111 ]
b11111 q
b11111 x
1%
#1290000
0%
#1295000
08
09
b1011 K
b100 Z
b100 _
b100 y
b100 |
b1010 L
1%
#1300000
0%
#1305000
0{
b1 W
b1 \
b1 j
b1 V
b1 i
b1 m
b1 v
b1 Y
b1 b
b1 k
b11111 T
b11111 a
b11111 s
17
10
b1100 K
b1011 L
1%
#1310000
0%
#1315000
b1001100 !
b1001100 3
b1001100 5"
1#
b0 K
b1 "
b1 4
b1 R
b1 w
b100 5
b100 S
b100 u
b100 #"
b1100 L
1%
#1320000
0%
#1325000
1{
b11011 W
b11011 \
b11011 j
b11111 Y
b11111 b
b11111 k
b11011 V
b11011 i
b11011 m
b11011 v
b11101 T
b11101 a
b11101 s
0#
0/
07
00
b0 L
1%
#1330000
0%
#1335000
1%
#1340000
0%
#1345000
1%
#1350000
0%
#1355000
1%
#1360000
0%
#1365000
1%
#1370000
0%
#1375000
1%
#1380000
b11110 W
b11110 \
b11110 j
b11110 V
b11110 i
b11110 m
b11110 v
b10 Y
b10 b
b10 k
06
b1 !
b1 3
b1 5"
b0 U
b0 ^
b0 p
b11110 O
b11110 l
b11110 ""
b0 T
b0 a
b0 s
0e
b0 5
b0 S
b0 u
b0 #"
b0 "
b0 4
b0 R
b0 w
b0 P
b0 o
b0 t
b0 }
b0 Q
b0 r
b0 z
b0 ~
b0 Z
b0 _
b0 y
b0 |
b0 [
b0 ]
b0 q
b0 x
0%
1(
#1385000
0,
b0 <
b0 =
b0 X
b0 d
b0 g
1%
#1390000
b11101 W
b11101 \
b11101 j
b11101 V
b11101 i
b11101 m
b11101 v
b1 K
b11 Y
b11 b
b11 k
b11101 O
b11101 l
b11101 ""
0%
1)
b11 `
b11 !"
b11 '
b11 +
b11 N
b1000 &
b1000 *
b1000 M
b1000 n
0(
#1395000
b1000 U
b1000 ^
b1000 p
b0 W
b0 \
b0 j
18
19
11
12
b11 K
b1 L
1%
#1400000
0%
#1405000
b0 U
b0 ^
b0 p
b11101 W
b11101 \
b11101 j
1.
08
09
01
02
b100 K
b1000 Z
b1000 _
b1000 y
b1000 |
b11 L
1%
#1410000
0%
0)
#1415000
b11110 W
b11110 \
b11110 j
b100 Y
b100 b
b100 k
b11110 V
b11110 i
b11110 m
b11110 v
0.
b110 K
b1 T
b1 a
b1 s
b11110 O
b11110 l
b11110 ""
b100 L
b1 Q
b1 r
b1 z
b1 ~
1%
#1420000
0%
#1425000
b111 K
b110 L
1%
#1430000
0%
#1435000
1-
18
19
b1000 K
b111 L
1%
#1440000
0%
