division_4bit_tb.vcd
$date
	Sat May 10 16:12:39 2025
$end
$version
	Icarus Verilog
$end
$timescale
	1ps
$end
$scope module division_4bit_tb $end
$var wire 17 ! remainder [16:0] $end
$var wire 16 " quotient [15:0] $end
$var wire 1 # done $end
$var reg 1 $ clk $end
$var reg 16 % dividend [15:0] $end
$var reg 16 & divisor [15:0] $end
$var reg 1 ' rst $end
$var reg 1 ( start $end
$scope module uut $end
$var wire 1 $ clk $end
$var wire 16 ) dividend [15:0] $end
$var wire 16 * divisor [15:0] $end
$var wire 1 ' rst $end
$var wire 1 ( start $end
$var wire 1 + status $end
$var wire 1 , shift_left_enable_q $end
$var wire 1 - shift_left_enable_a $end
$var wire 1 . select_mux_2 $end
$var wire 1 / select_add $end
$var wire 1 0 select_Q $end
$var wire 1 1 select_A $end
$var wire 17 2 remainder [16:0] $end
$var wire 16 3 quotient [15:0] $end
$var wire 1 4 negative_flag $end
$var wire 1 5 ld_rem_quotient $end
$var wire 1 6 ld_Q $end
$var wire 1 7 ld_A $end
$var wire 1 # done $end
$var wire 1 8 count_enable $end
$var wire 4 9 count [3:0] $end
$scope module controlpath $end
$var wire 1 $ clk $end
$var wire 4 : ns [3:0] $end
$var wire 4 ; ps [3:0] $end
$var wire 1 ' rst $end
$var wire 1 ( start $end
$var wire 1 + status $end
$var wire 1 4 negative_flag $end
$var wire 4 < count [3:0] $end
$var parameter 4 = adder $end
$var parameter 4 > check $end
$var parameter 4 ? correct $end
$var parameter 4 @ display $end
$var parameter 4 A idle $end
$var parameter 4 B iter $end
$var parameter 4 C load $end
$var parameter 4 D load_wait $end
$var parameter 4 E shift_a $end
$var parameter 4 F shift_q $end
$var parameter 4 G subtractor $end
$var parameter 4 H wait_a $end
$var parameter 4 I wait_q $end
$var reg 1 8 count_enable $end
$var reg 1 # done $end
$var reg 1 7 ld_A $end
$var reg 1 6 ld_Q $end
$var reg 1 5 ld_rem_quotient $end
$var reg 4 J next_state [3:0] $end
$var reg 4 K present_state [3:0] $end
$var reg 1 1 select_A $end
$var reg 1 0 select_Q $end
$var reg 1 / select_add $end
$var reg 1 . select_mux_2 $end
$var reg 1 - shift_left_enable_a $end
$var reg 1 , shift_left_enable_q $end
$upscope $end
$scope module datapath $end
$var wire 1 $ clk $end
$var wire 1 8 count_enable $end
$var wire 16 L dividend [15:0] $end
$var wire 16 M divisor [15:0] $end
$var wire 1 7 ld_A $end
$var wire 1 6 ld_Q $end
$var wire 1 5 ld_rem_quotient $end
$var wire 1 ' rst $end
$var wire 1 1 select_A $end
$var wire 1 0 select_Q $end
$var wire 1 / select_add $end
$var wire 1 . select_mux_2 $end
$var wire 1 - shift_left_enable_a $end
$var wire 1 , shift_left_enable_q $end
$var wire 17 N subtractor_out [16:0] $end
$var wire 1 + status $end
$var wire 16 O shift_register_out_q [15:0] $end
$var wire 17 P shift_register_out_a [16:0] $end
$var wire 17 Q remainder [16:0] $end
$var wire 16 R quotient [15:0] $end
$var wire 1 4 negative_flag $end
$var wire 17 S mux_out_4 [16:0] $end
$var wire 16 T mux_out_3 [15:0] $end
$var wire 17 U mux_out_2 [16:0] $end
$var wire 17 V mux_out_1 [16:0] $end
$var wire 4 W count [3:0] $end
$var wire 17 X adder_out [16:0] $end
$var wire 16 Y Q [15:0] $end
$var wire 17 Z A [16:0] $end
$scope module A_reg $end
$var wire 1 $ clk $end
$var wire 1 7 ld_register $end
$var wire 1 ' rst $end
$var wire 17 [ input_data [16:0] $end
$var reg 17 \ output_data [16:0] $end
$upscope $end
$scope module Q_reg $end
$var wire 1 $ clk $end
$var wire 1 6 ld_register $end
$var wire 1 ' rst $end
$var wire 16 ] input_data [15:0] $end
$var reg 16 ^ output_data [15:0] $end
$upscope $end
$scope module adder1 $end
$var wire 17 _ B [16:0] $end
$var wire 17 ` A [16:0] $end
$var reg 17 a sum [16:0] $end
$upscope $end
$scope module cmp $end
$var wire 4 b B [3:0] $end
$var wire 4 c A [3:0] $end
$var reg 1 + equal $end
$upscope $end
$scope module cmp1 $end
$var wire 1 d A $end
$var wire 1 e B $end
$var reg 1 4 equal $end
$upscope $end
$scope module incrementer $end
$var wire 1 $ clk $end
$var wire 1 8 count_enable $end
$var wire 1 ' rst $end
$var reg 4 f count [3:0] $end
$upscope $end
$scope module mux1 $end
$var wire 17 g A [16:0] $end
$var wire 1 1 select $end
$var wire 17 h B [16:0] $end
$var reg 17 i out [16:0] $end
$upscope $end
$scope module mux2 $end
$var wire 17 j A [16:0] $end
$var wire 1 . select $end
$var wire 17 k B [16:0] $end
$var reg 17 l out [16:0] $end
$upscope $end
$scope module mux3 $end
$var wire 16 m A [15:0] $end
$var wire 1 0 select $end
$var wire 16 n B [15:0] $end
$var reg 16 o out [15:0] $end
$upscope $end
$scope module mux4 $end
$var wire 17 p A [16:0] $end
$var wire 1 / select $end
$var wire 17 q B [16:0] $end
$var reg 17 r out [16:0] $end
$upscope $end
$scope module quotient_reg $end
$var wire 1 $ clk $end
$var wire 1 5 ld_register $end
$var wire 1 ' rst $end
$var wire 16 s input_data [15:0] $end
$var reg 16 t output_data [15:0] $end
$upscope $end
$scope module remainder_reg $end
$var wire 1 $ clk $end
$var wire 17 u input_data [16:0] $end
$var wire 1 5 ld_register $end
$var wire 1 ' rst $end
$var reg 17 v output_data [16:0] $end
$upscope $end
$scope module shift_A_left $end
$var wire 17 w A [16:0] $end
$var wire 16 x Q [15:0] $end
$var wire 1 $ clk $end
$var wire 1 ' rst $end
$var wire 1 - shift_left_enable_a $end
$var reg 17 y shift_out [16:0] $end
$upscope $end
$scope module shift_Q_left $end
$var wire 1 z A $end
$var wire 16 { Q [15:0] $end
$var wire 1 $ clk $end
$var wire 1 ' rst $end
$var wire 1 , shift_left_enable_q $end
$var reg 16 | shift_out [15:0] $end
$upscope $end
$scope module subtractor1 $end
$var wire 17 } A [16:0] $end
$var wire 17 ~ B [16:0] $end
$var reg 17 !" difference [16:0] $end
$upscope $end
$upscope $end
$upscope $end
$upscope $end
$scope module lcd_module $end
$var wire 1 "" clk $end
$var wire 4 #" quotient [3:0] $end
$var wire 1 $" rst $end
$var parameter 7 %" A $end
$var parameter 7 &" B $end
$var parameter 7 '" C $end
$var parameter 7 (" D $end
$var parameter 7 )" E $end
$var parameter 7 *" EIGHT $end
$var parameter 7 +" F $end
$var parameter 7 ," FIVE $end
$var parameter 7 -" FOUR $end
$var parameter 7 ." NINE $end
$var parameter 7 /" ONE $end
$var parameter 7 0" SEVEN $end
$var parameter 7 1" SIX $end
$var parameter 7 2" THREE $end
$var parameter 7 3" TWO $end
$var parameter 7 4" ZERO $end
$var reg 4 5" digit [3:0] $end
$var reg 7 6" seg [6:0] $end
$upscope $end
$enddefinitions $end
$comment Show the parameter values. $end
$dumpall
b1 4"
b10010 3"
b110 2"
b100000 1"
b1111 0"
b1001111 /"
b1100 ."
b1001100 -"
b100100 ,"
b111000 +"
b0 *"
b10000 )"
b1000010 ("
b110001 '"
b1100000 &"
b1000 %"
b1000 I
b100 H
b110 G
b111 F
b11 E
b10 D
b1 C
b1001 B
b0 A
b1100 @
b1011 ?
b1010 >
b101 =
$end
#0
$dumpvars
b0 6"
bx 5"
z$"
bz #"
z""
b0 !"
b0 ~
b0 }
b0 |
b0 {
0z
b0 y
b0 x
b0 w
b0 v
b0 u
b0 t
b0 s
b0 r
b0 q
b0 p
b0 o
b0 n
b0 m
b0 l
b0 k
b0 j
b0 i
b0 h
b0 g
bx f
1e
0d
bx c
b1111 b
b0 a
b0 `
b0 _
b0 ^
b0 ]
b0 \
b0 [
b0 Z
b0 Y
b0 X
bx W
b0 V
b0 U
b0 T
b0 S
b0 R
b0 Q
b0 P
b0 O
b0 N
b0 M
b0 L
b0 K
b0 J
bx <
b0 ;
b0 :
bx 9
08
07
06
05
04
b0 3
b0 2
01
00
0/
0.
0-
0,
0+
b0 *
b0 )
0(
1'
b0 &
b0 %
0$
0#
b0 "
b0 !
$end
#5000
b0 9
b0 <
b0 W
b0 c
b0 f
1$
#10000
0$
0'
#15000
1$
#20000
0$
1'
#25000
1$
#30000
1z
b11111111111110001 V
b11111111111110001 [
b11111111111110001 i
b11111111111110001 U
b11111111111110001 h
b11111111111110001 l
b11111111111110001 u
b1 :
b1 J
b1111 X
b1111 a
b1111 j
b11111111111110001 N
b11111111111110001 k
b11111111111110001 !"
0$
1(
b1111 _
b1111 ~
b1111 &
b1111 *
b1111 M
b1111 %
b1111 )
b1111 L
b1111 m
0'
#35000
b1111 T
b1111 ]
b1111 o
b0 V
b0 [
b0 i
16
17
10
11
b11 :
b11 J
b1 ;
b1 K
1$
#40000
0$
#45000
b0 T
b0 ]
b0 o
b11111111111110001 V
b11111111111110001 [
b11111111111110001 i
1-
06
07
00
01
b100 :
b100 J
b1111 Y
b1111 ^
b1111 x
b1111 {
b11 ;
b11 K
1$
#50000
0$
0(
#55000
0-
b110 :
b110 J
b100 ;
b100 K
1$
#60000
0$
#65000
b111 :
b111 J
b110 ;
b110 K
1$
#70000
0$
#75000
1,
16
17
b1000 :
b1000 J
b111 ;
b111 K
1$
#80000
0$
#85000
14
1d
b11110 T
b11110 ]
b11110 o
0,
b1001 :
b1001 J
b11111111111110001 Z
b11111111111110001 \
b11111111111110001 p
b11111111111110001 w
b0 Y
b0 ^
b0 x
b0 {
b11110 O
b11110 n
b11110 s
b11110 |
b1000 ;
b1000 K
1$
#90000
0$
#95000
06
07
18
b11 :
b11 J
b1001 ;
b1001 K
b11110 Y
b11110 ^
b11110 x
b11110 {
1$
#100000
0$
#105000
1-
08
b100 :
b100 J
b11 ;
b11 K
b1 9
b1 <
b1 W
b1 c
b1 f
1$
#110000
0$
#115000
b11111111111010011 V
b11111111111010011 [
b11111111111010011 i
b11111111111110001 X
b11111111111110001 a
b11111111111110001 j
b11111111111010011 U
b11111111111010011 h
b11111111111010011 l
b11111111111010011 u
0-
b101 :
b101 J
b11111111111100010 S
b11111111111100010 `
b11111111111100010 r
b11111111111010011 N
b11111111111010011 k
b11111111111010011 !"
b100 ;
b100 K
b11111111111100010 P
b11111111111100010 q
b11111111111100010 y
b11111111111100010 }
1$
#120000
0$
#125000
b11111111111110001 V
b11111111111110001 [
b11111111111110001 i
b11111111111110001 U
b11111111111110001 h
b11111111111110001 l
b11111111111110001 u
1.
b111 :
b111 J
b101 ;
b101 K
1$
#130000
0$
#135000
1,
16
17
b1000 :
b1000 J
b111 ;
b111 K
1$
#140000
0$
#145000
b111100 T
b111100 ]
b111100 o
0,
b1001 :
b1001 J
b111100 O
b111100 n
b111100 s
b111100 |
b1000 ;
b1000 K
1$
#150000
0$
#155000
06
07
18
b11 :
b11 J
b1001 ;
b1001 K
b111100 Y
b111100 ^
b111100 x
b111100 {
1$
#160000
0$
#165000
b11111111111010011 V
b11111111111010011 [
b11111111111010011 i
b11111111111010011 U
b11111111111010011 h
b11111111111010011 l
b11111111111010011 u
0.
1-
08
b100 :
b100 J
b11 ;
b11 K
b10 9
b10 <
b10 W
b10 c
b10 f
1$
#170000
0$
#175000
0-
b101 :
b101 J
b100 ;
b100 K
1$
#180000
0$
#185000
b11111111111110001 V
b11111111111110001 [
b11111111111110001 i
b11111111111110001 U
b11111111111110001 h
b11111111111110001 l
b11111111111110001 u
1.
b111 :
b111 J
b101 ;
b101 K
1$
#190000
0$
#195000
1,
16
17
b1000 :
b1000 J
b111 ;
b111 K
1$
#200000
0$
#205000
b1111000 T
b1111000 ]
b1111000 o
0,
b1001 :
b1001 J
b1111000 O
b1111000 n
b1111000 s
b1111000 |
b1000 ;
b1000 K
1$
#210000
0$
#215000
06
07
18
b11 :
b11 J
b1001 ;
b1001 K
b1111000 Y
b1111000 ^
b1111000 x
b1111000 {
1$
#220000
0$
#225000
b11111111111010011 V
b11111111111010011 [
b11111111111010011 i
b11111111111010011 U
b11111111111010011 h
b11111111111010011 l
b11111111111010011 u
0.
1-
08
b100 :
b100 J
b11 ;
b11 K
b11 9
b11 <
b11 W
b11 c
b11 f
1$
#230000
0$
#235000
0-
b101 :
b101 J
b100 ;
b100 K
1$
#240000
0$
#245000
b11111111111110001 V
b11111111111110001 [
b11111111111110001 i
b11111111111110001 U
b11111111111110001 h
b11111111111110001 l
b11111111111110001 u
1.
b111 :
b111 J
b101 ;
b101 K
1$
#250000
0$
#255000
1,
16
17
b1000 :
b1000 J
b111 ;
b111 K
1$
#260000
0$
#265000
b11110000 T
b11110000 ]
b11110000 o
0,
b1001 :
b1001 J
b11110000 O
b11110000 n
b11110000 s
b11110000 |
b1000 ;
b1000 K
1$
#270000
0$
#275000
06
07
18
b11 :
b11 J
b1001 ;
b1001 K
b11110000 Y
b11110000 ^
b11110000 x
b11110000 {
1$
#280000
0$
#285000
b11111111111010011 V
b11111111111010011 [
b11111111111010011 i
b11111111111010011 U
b11111111111010011 h
b11111111111010011 l
b11111111111010011 u
0.
1-
08
b100 :
b100 J
b11 ;
b11 K
b100 9
b100 <
b100 W
b100 c
b100 f
1$
#290000
0$
#295000
0-
b101 :
b101 J
b100 ;
b100 K
1$
#300000
0$
#305000
b11111111111110001 V
b11111111111110001 [
b11111111111110001 i
b11111111111110001 U
b11111111111110001 h
b11111111111110001 l
b11111111111110001 u
1.
b111 :
b111 J
b101 ;
b101 K
1$
#310000
0$
#315000
1,
16
17
b1000 :
b1000 J
b111 ;
b111 K
1$
#320000
0$
#325000
b111100000 T
b111100000 ]
b111100000 o
0,
b1001 :
b1001 J
b111100000 O
b111100000 n
b111100000 s
b111100000 |
b1000 ;
b1000 K
1$
#330000
0$
#335000
06
07
18
b11 :
b11 J
b1001 ;
b1001 K
b111100000 Y
b111100000 ^
b111100000 x
b111100000 {
1$
#340000
0$
#345000
b11111111111010011 V
b11111111111010011 [
b11111111111010011 i
b11111111111010011 U
b11111111111010011 h
b11111111111010011 l
b11111111111010011 u
0.
1-
08
b100 :
b100 J
b11 ;
b11 K
b101 9
b101 <
b101 W
b101 c
b101 f
1$
#350000
0$
#355000
0-
b101 :
b101 J
b100 ;
b100 K
1$
#360000
0$
#365000
b11111111111110001 V
b11111111111110001 [
b11111111111110001 i
b11111111111110001 U
b11111111111110001 h
b11111111111110001 l
b11111111111110001 u
1.
b111 :
b111 J
b101 ;
b101 K
1$
#370000
0$
#375000
1,
16
17
b1000 :
b1000 J
b111 ;
b111 K
1$
#380000
0$
#385000
b1111000000 T
b1111000000 ]
b1111000000 o
0,
b1001 :
b1001 J
b1111000000 O
b1111000000 n
b1111000000 s
b1111000000 |
b1000 ;
b1000 K
1$
#390000
0$
#395000
06
07
18
b11 :
b11 J
b1001 ;
b1001 K
b1111000000 Y
b1111000000 ^
b1111000000 x
b1111000000 {
1$
#400000
0$
#405000
b11111111111010011 V
b11111111111010011 [
b11111111111010011 i
b11111111111010011 U
b11111111111010011 h
b11111111111010011 l
b11111111111010011 u
0.
1-
08
b100 :
b100 J
b11 ;
b11 K
b110 9
b110 <
b110 W
b110 c
b110 f
1$
#410000
0$
#415000
0-
b101 :
b101 J
b100 ;
b100 K
1$
#420000
0$
#425000
b11111111111110001 V
b11111111111110001 [
b11111111111110001 i
b11111111111110001 U
b11111111111110001 h
b11111111111110001 l
b11111111111110001 u
1.
b111 :
b111 J
b101 ;
b101 K
1$
#430000
0$
#435000
1,
16
17
b1000 :
b1000 J
b111 ;
b111 K
1$
#440000
0$
#445000
b11110000000 T
b11110000000 ]
b11110000000 o
0,
b1001 :
b1001 J
b11110000000 O
b11110000000 n
b11110000000 s
b11110000000 |
b1000 ;
b1000 K
1$
#450000
0$
#455000
06
07
18
b11 :
b11 J
b1001 ;
b1001 K
b11110000000 Y
b11110000000 ^
b11110000000 x
b11110000000 {
1$
#460000
0$
#465000
b11111111111010011 V
b11111111111010011 [
b11111111111010011 i
b11111111111010011 U
b11111111111010011 h
b11111111111010011 l
b11111111111010011 u
0.
1-
08
b100 :
b100 J
b11 ;
b11 K
b111 9
b111 <
b111 W
b111 c
b111 f
1$
#470000
0$
#475000
0-
b101 :
b101 J
b100 ;
b100 K
1$
#480000
0$
#485000
b11111111111110001 V
b11111111111110001 [
b11111111111110001 i
b11111111111110001 U
b11111111111110001 h
b11111111111110001 l
b11111111111110001 u
1.
b111 :
b111 J
b101 ;
b101 K
1$
#490000
0$
#495000
1,
16
17
b1000 :
b1000 J
b111 ;
b111 K
1$
#500000
0$
#505000
b111100000000 T
b111100000000 ]
b111100000000 o
0,
b1001 :
b1001 J
b111100000000 O
b111100000000 n
b111100000000 s
b111100000000 |
b1000 ;
b1000 K
1$
#510000
0$
#515000
06
07
18
b11 :
b11 J
b1001 ;
b1001 K
b111100000000 Y
b111100000000 ^
b111100000000 x
b111100000000 {
1$
#520000
0$
#525000
b11111111111010011 V
b11111111111010011 [
b11111111111010011 i
b11111111111010011 U
b11111111111010011 h
b11111111111010011 l
b11111111111010011 u
0.
1-
08
b100 :
b100 J
b11 ;
b11 K
b1000 9
b1000 <
b1000 W
b1000 c
b1000 f
1$
#530000
0$
#535000
0-
b101 :
b101 J
b100 ;
b100 K
1$
#540000
0$
#545000
b11111111111110001 V
b11111111111110001 [
b11111111111110001 i
b11111111111110001 U
b11111111111110001 h
b11111111111110001 l
b11111111111110001 u
1.
b111 :
b111 J
b101 ;
b101 K
1$
#550000
0$
#555000
1,
16
17
b1000 :
b1000 J
b111 ;
b111 K
1$
#560000
0$
#565000
b1111000000000 T
b1111000000000 ]
b1111000000000 o
0,
b1001 :
b1001 J
b1111000000000 O
b1111000000000 n
b1111000000000 s
b1111000000000 |
b1000 ;
b1000 K
1$
#570000
0$
#575000
06
07
18
b11 :
b11 J
b1001 ;
b1001 K
b1111000000000 Y
b1111000000000 ^
b1111000000000 x
b1111000000000 {
1$
#580000
0$
#585000
b11111111111010011 V
b11111111111010011 [
b11111111111010011 i
b11111111111010011 U
b11111111111010011 h
b11111111111010011 l
b11111111111010011 u
0.
1-
08
b100 :
b100 J
b11 ;
b11 K
b1001 9
b1001 <
b1001 W
b1001 c
b1001 f
1$
#590000
0$
#595000
0-
b101 :
b101 J
b100 ;
b100 K
1$
#600000
0$
#605000
b11111111111110001 V
b11111111111110001 [
b11111111111110001 i
b11111111111110001 U
b11111111111110001 h
b11111111111110001 l
b11111111111110001 u
1.
b111 :
b111 J
b101 ;
b101 K
1$
#610000
0$
#615000
1,
16
17
b1000 :
b1000 J
b111 ;
b111 K
1$
#620000
0$
#625000
b11110000000000 T
b11110000000000 ]
b11110000000000 o
0,
b1001 :
b1001 J
b11110000000000 O
b11110000000000 n
b11110000000000 s
b11110000000000 |
b1000 ;
b1000 K
1$
#630000
0$
#635000
06
07
18
b11 :
b11 J
b1001 ;
b1001 K
b11110000000000 Y
b11110000000000 ^
b11110000000000 x
b11110000000000 {
1$
#640000
0$
#645000
b11111111111010011 V
b11111111111010011 [
b11111111111010011 i
b11111111111010011 U
b11111111111010011 h
b11111111111010011 l
b11111111111010011 u
0.
1-
08
b100 :
b100 J
b11 ;
b11 K
b1010 9
b1010 <
b1010 W
b1010 c
b1010 f
1$
#650000
0$
#655000
0-
b101 :
b101 J
b100 ;
b100 K
1$
#660000
0$
#665000
b11111111111110001 V
b11111111111110001 [
b11111111111110001 i
b11111111111110001 U
b11111111111110001 h
b11111111111110001 l
b11111111111110001 u
1.
b111 :
b111 J
b101 ;
b101 K
1$
#670000
0$
#675000
1,
16
17
b1000 :
b1000 J
b111 ;
b111 K
1$
#680000
0$
#685000
b111100000000000 T
b111100000000000 ]
b111100000000000 o
0,
b1001 :
b1001 J
b111100000000000 O
b111100000000000 n
b111100000000000 s
b111100000000000 |
b1000 ;
b1000 K
1$
#690000
0$
#695000
06
07
18
b11 :
b11 J
b1001 ;
b1001 K
b111100000000000 Y
b111100000000000 ^
b111100000000000 x
b111100000000000 {
1$
#700000
0$
#705000
b11111111111010011 V
b11111111111010011 [
b11111111111010011 i
b11111111111010011 U
b11111111111010011 h
b11111111111010011 l
b11111111111010011 u
0.
1-
08
b100 :
b100 J
b11 ;
b11 K
b1011 9
b1011 <
b1011 W
b1011 c
b1011 f
1$
#710000
0$
#715000
0-
b101 :
b101 J
b100 ;
b100 K
1$
#720000
0$
#725000
b11111111111110001 V
b11111111111110001 [
b11111111111110001 i
b11111111111110001 U
b11111111111110001 h
b11111111111110001 l
b11111111111110001 u
1.
b111 :
b111 J
b101 ;
b101 K
1$
#730000
0$
#735000
1,
16
17
b1000 :
b1000 J
b111 ;
b111 K
1$
#740000
0$
#745000
b1111000000000000 T
b1111000000000000 ]
b1111000000000000 o
0,
b1001 :
b1001 J
b1111000000000000 O
b1111000000000000 n
b1111000000000000 s
b1111000000000000 |
b1000 ;
b1000 K
1$
#750000
0$
#755000
06
07
18
b11 :
b11 J
b1001 ;
b1001 K
b1111000000000000 Y
b1111000000000000 ^
b1111000000000000 x
b1111000000000000 {
1$
#760000
0$
#765000
b11111111111010011 V
b11111111111010011 [
b11111111111010011 i
b11111111111010011 U
b11111111111010011 h
b11111111111010011 l
b11111111111010011 u
0.
1-
08
b100 :
b100 J
b11 ;
b11 K
b1100 9
b1100 <
b1100 W
b1100 c
b1100 f
1$
#770000
0$
#775000
b11111111111010100 V
b11111111111010100 [
b11111111111010100 i
b11111111111110010 X
b11111111111110010 a
b11111111111110010 j
b11111111111010100 U
b11111111111010100 h
b11111111111010100 l
b11111111111010100 u
0-
b101 :
b101 J
b11111111111100011 S
b11111111111100011 `
b11111111111100011 r
b11111111111010100 N
b11111111111010100 k
b11111111111010100 !"
b100 ;
b100 K
b11111111111100011 P
b11111111111100011 q
b11111111111100011 y
b11111111111100011 }
1$
#780000
0$
#785000
b11111111111110010 V
b11111111111110010 [
b11111111111110010 i
b11111111111110010 U
b11111111111110010 h
b11111111111110010 l
b11111111111110010 u
1.
b111 :
b111 J
b101 ;
b101 K
1$
#790000
0$
#795000
1,
16
17
b1000 :
b1000 J
b111 ;
b111 K
1$
#800000
0$
#805000
b1110000000000000 T
b1110000000000000 ]
b1110000000000000 o
0,
b1001 :
b1001 J
b11111111111110010 Z
b11111111111110010 \
b11111111111110010 p
b11111111111110010 w
b1110000000000000 O
b1110000000000000 n
b1110000000000000 s
b1110000000000000 |
b1000 ;
b1000 K
1$
#810000
0$
#815000
06
07
18
b11 :
b11 J
b1001 ;
b1001 K
b1110000000000000 Y
b1110000000000000 ^
b1110000000000000 x
b1110000000000000 {
1$
#820000
0$
#825000
b11111111111010100 V
b11111111111010100 [
b11111111111010100 i
b11111111111010100 U
b11111111111010100 h
b11111111111010100 l
b11111111111010100 u
0.
1-
08
b100 :
b100 J
b11 ;
b11 K
b1101 9
b1101 <
b1101 W
b1101 c
b1101 f
1$
#830000
0$
#835000
b11111111111010110 V
b11111111111010110 [
b11111111111010110 i
b11111111111110100 X
b11111111111110100 a
b11111111111110100 j
b11111111111010110 U
b11111111111010110 h
b11111111111010110 l
b11111111111010110 u
0-
b101 :
b101 J
b11111111111100101 S
b11111111111100101 `
b11111111111100101 r
b11111111111010110 N
b11111111111010110 k
b11111111111010110 !"
b100 ;
b100 K
b11111111111100101 P
b11111111111100101 q
b11111111111100101 y
b11111111111100101 }
1$
#840000
0$
#845000
b11111111111110100 V
b11111111111110100 [
b11111111111110100 i
b11111111111110100 U
b11111111111110100 h
b11111111111110100 l
b11111111111110100 u
1.
b111 :
b111 J
b101 ;
b101 K
1$
#850000
0$
#855000
1,
16
17
b1000 :
b1000 J
b111 ;
b111 K
1$
#860000
0$
#865000
b1100000000000000 T
b1100000000000000 ]
b1100000000000000 o
0,
b1001 :
b1001 J
b11111111111110100 Z
b11111111111110100 \
b11111111111110100 p
b11111111111110100 w
b1100000000000000 O
b1100000000000000 n
b1100000000000000 s
b1100000000000000 |
b1000 ;
b1000 K
1$
#870000
0$
#875000
06
07
18
b11 :
b11 J
b1001 ;
b1001 K
b1100000000000000 Y
b1100000000000000 ^
b1100000000000000 x
b1100000000000000 {
1$
#880000
0$
#885000
b11111111111010110 V
b11111111111010110 [
b11111111111010110 i
b11111111111010110 U
b11111111111010110 h
b11111111111010110 l
b11111111111010110 u
0.
1-
08
b100 :
b100 J
b11 ;
b11 K
b1110 9
b1110 <
b1110 W
b1110 c
b1110 f
1$
#890000
0$
#895000
b11111111111011010 V
b11111111111011010 [
b11111111111011010 i
b11111111111111000 X
b11111111111111000 a
b11111111111111000 j
b11111111111011010 U
b11111111111011010 h
b11111111111011010 l
b11111111111011010 u
0-
b101 :
b101 J
b11111111111101001 S
b11111111111101001 `
b11111111111101001 r
b11111111111011010 N
b11111111111011010 k
b11111111111011010 !"
b100 ;
b100 K
b11111111111101001 P
b11111111111101001 q
b11111111111101001 y
b11111111111101001 }
1$
#900000
0$
#905000
b11111111111111000 V
b11111111111111000 [
b11111111111111000 i
b11111111111111000 U
b11111111111111000 h
b11111111111111000 l
b11111111111111000 u
1.
b111 :
b111 J
b101 ;
b101 K
1$
#910000
0$
#915000
1,
16
17
b1000 :
b1000 J
b111 ;
b111 K
1$
#920000
0$
#925000
b1000000000000000 T
b1000000000000000 ]
b1000000000000000 o
0,
b1001 :
b1001 J
b11111111111111000 Z
b11111111111111000 \
b11111111111111000 p
b11111111111111000 w
b1000000000000000 O
b1000000000000000 n
b1000000000000000 s
b1000000000000000 |
b1000 ;
b1000 K
1$
#930000
0$
#935000
06
07
18
b11 :
b11 J
b1001 ;
b1001 K
b1000000000000000 Y
b1000000000000000 ^
b1000000000000000 x
b1000000000000000 {
1$
#940000
0$
#945000
b11111111111011010 V
b11111111111011010 [
b11111111111011010 i
b11111111111011010 U
b11111111111011010 h
b11111111111011010 l
b11111111111011010 u
0.
1-
08
b100 :
b100 J
1+
b11 ;
b11 K
b1111 9
b1111 <
b1111 W
b1111 c
b1111 f
1$
#950000
0$
#955000
b11111111111100010 V
b11111111111100010 [
b11111111111100010 i
b0 X
b0 a
b0 j
b11111111111100010 U
b11111111111100010 h
b11111111111100010 l
b11111111111100010 u
0-
b101 :
b101 J
b11111111111110001 S
b11111111111110001 `
b11111111111110001 r
b11111111111100010 N
b11111111111100010 k
b11111111111100010 !"
b100 ;
b100 K
b11111111111110001 P
b11111111111110001 q
b11111111111110001 y
b11111111111110001 }
1$
#960000
0$
#965000
0z
b0 V
b0 [
b0 i
b0 U
b0 h
b0 l
b0 u
1.
b111 :
b111 J
b101 ;
b101 K
1$
#970000
0$
#975000
1,
16
17
b1000 :
b1000 J
b111 ;
b111 K
1$
#980000
0$
#985000
04
0d
b1 T
b1 ]
b1 o
0,
b1010 :
b1010 J
b0 Z
b0 \
b0 p
b0 w
b1 O
b1 n
b1 s
b1 |
b1000 ;
b1000 K
1$
#990000
0$
#995000
06
07
b1100 :
b1100 J
b1010 ;
b1010 K
b1 Y
b1 ^
b1 x
b1 {
1$
#1000000
0$
#1005000
1#
15
b0 :
b0 J
b1100 ;
b1100 K
1$
#1010000
0$
#1015000
1z
b11111111111100010 V
b11111111111100010 [
b11111111111100010 i
b11111111111100010 U
b11111111111100010 h
b11111111111100010 l
b11111111111100010 u
0#
0.
05
b0 ;
b0 K
b1 "
b1 3
b1 R
b1 t
1$
